<?xml version="1.0"?>
<VTKFile type="Collection" version="0.1" byte_order="LittleEndian" header_type="UInt32" compressor="vtkZLibDataCompressor">
  <Collection>
    <DataSet timestep="0" group="source5624" part="0" file="banch3/banch3_source5624T0000.vtm"/>
    <DataSet timestep="0.111111" group="source5624" part="0" file="banch3/banch3_source5624T0001.vtm"/>
    <DataSet timestep="0.222222" group="source5624" part="0" file="banch3/banch3_source5624T0002.vtm"/>
    <DataSet timestep="0.333333" group="source5624" part="0" file="banch3/banch3_source5624T0003.vtm"/>
    <DataSet timestep="0.444444" group="source5624" part="0" file="banch3/banch3_source5624T0004.vtm"/>
    <DataSet timestep="0.555556" group="source5624" part="0" file="banch3/banch3_source5624T0005.vtm"/>
    <DataSet timestep="0.666667" group="source5624" part="0" file="banch3/banch3_source5624T0006.vtm"/>
    <DataSet timestep="0.777778" group="source5624" part="0" file="banch3/banch3_source5624T0007.vtm"/>
    <DataSet timestep="0.888889" group="source5624" part="0" file="banch3/banch3_source5624T0008.vtm"/>
    <DataSet timestep="1" group="source5624" part="0" file="banch3/banch3_source5624T0009.vtm"/>
  </Collection>
</VTKFile>
