\relax 
\citation{bif:3}
\@writefile{toc}{\contentsline {chapter}{\numberline {2}Continuation Techniques}{8}}
\@writefile{lof}{\addvspace {10\p@ }}
\@writefile{lot}{\addvspace {10\p@ }}
\citation{bif:3}
\newlabel{eq2}{{2.1}{9}}
\@writefile{toc}{\contentsline {section}{\numberline {2.1}Banach Manifold}{9}}
\newlabel{atlas}{{2.1.2}{10}}
\@setckpt{body}{
\setcounter{page}{11}
\setcounter{equation}{1}
\setcounter{enumi}{0}
\setcounter{enumii}{0}
\setcounter{enumiii}{0}
\setcounter{enumiv}{0}
\setcounter{footnote}{0}
\setcounter{mpfootnote}{0}
\setcounter{part}{0}
\setcounter{chapter}{2}
\setcounter{section}{1}
\setcounter{subsection}{0}
\setcounter{subsubsection}{0}
\setcounter{paragraph}{0}
\setcounter{subparagraph}{0}
\setcounter{figure}{0}
\setcounter{table}{0}
\setcounter{parentequation}{0}
\setcounter{ContinuedFloat}{0}
\setcounter{subfigure}{0}
\setcounter{subtable}{0}
\setcounter{definition}{3}
}
