\relax 
\@writefile{toc}{\contentsline {chapter}{\numberline {1}Introduction}{1}}
\@writefile{lof}{\addvspace {10\p@ }}
\@writefile{lot}{\addvspace {10\p@ }}
\newlabel{eq0}{{1.1}{1}}
\citation{bif:1}
\citation{bif:5}
\citation{Caspthesis}
\citation{bif:1}
\newlabel{eq1}{{1.2}{2}}
\citation{bif:5}
\citation{bif:5}
\providecommand*\caption@xref[2]{\@setref\relax\@undefined{#1}}
\newlabel{fig1c}{{1.1c}{4}}
\newlabel{sub@fig1c}{{c}{4}}
\@writefile{lof}{\contentsline {figure}{\numberline {1.1}{\ignorespaces Deformation of an ideal $($left$)$ and an imperfect $($right$)$ beam under a load $\lambda $. While the second beam qualitatively changes as soon as a load is applied, the first one present relevant deviation from the vertical state only for weights greater than a critical value, $\lambda _c$, called \textit  {Euler's critical load}, \cite  {bif:5}. Note that the segment $\mu $ is not in scale. This is assume it to be negligible with respect to the length of the beam.\relax }}{4}}
\newlabel{fig1}{{1.1}{4}}
\citation{bif:6}
\citation{bif:2}
\citation{bif:4}
\citation{bif:7}
\newlabel{fig2a}{{1.2a}{5}}
\newlabel{sub@fig2a}{{a}{5}}
\newlabel{fig2b}{{1.2b}{5}}
\newlabel{sub@fig2b}{{b}{5}}
\@writefile{lof}{\contentsline {figure}{\numberline {1.2}{\ignorespaces Example of bifurcation diagrams. Different branches are highlighted with different colours, while the red curve consist of bifurcation points.\relax }}{5}}
\newlabel{fig2}{{1.2}{5}}
\citation{bif:8}
\citation{Caspthesis}
\citation{bif:9}
\citation{bif:10}
\citation{bif:4}
\citation{bif:11}
\@writefile{toc}{\contentsline {section}{\numberline {1.1}Outline of the Work}{7}}
\@setckpt{intro}{
\setcounter{page}{8}
\setcounter{equation}{2}
\setcounter{enumi}{0}
\setcounter{enumii}{0}
\setcounter{enumiii}{0}
\setcounter{enumiv}{0}
\setcounter{footnote}{0}
\setcounter{mpfootnote}{0}
\setcounter{part}{0}
\setcounter{chapter}{1}
\setcounter{section}{1}
\setcounter{subsection}{0}
\setcounter{subsubsection}{0}
\setcounter{paragraph}{0}
\setcounter{subparagraph}{0}
\setcounter{figure}{2}
\setcounter{table}{0}
\setcounter{parentequation}{0}
\setcounter{ContinuedFloat}{0}
\setcounter{subfigure}{2}
\setcounter{subtable}{0}
\setcounter{definition}{0}
}
