\addvspace {10\p@ }
\contentsline {figure}{\numberline {1.1}{\ignorespaces Deformation of an ideal $($left$)$ and an imperfect $($right$)$ beam under a load $\lambda $. While the second beam qualitatively changes as soon as a load is applied, the first one present relevant deviation from the vertical state only for weights greater than a critical value, $\lambda _c$, called \textit {Euler's critical load}, \cite {bif:5}. Note that the segment $\mu $ is not in scale. This is assume it to be negligible with respect to the length of the beam.\relax }}{4}
\contentsline {figure}{\numberline {1.2}{\ignorespaces Example of bifurcation diagrams. Different branches are highlighted with different colours, while the red curve consist of bifurcation points.\relax }}{5}
\addvspace {10\p@ }
\addvspace {10\p@ }
\addvspace {10\p@ }
