\relax 
\@input{ackno.aux}
\@input{abst.aux}
\citation{bif:5}
\@input{intro.aux}
\@input{body.aux}
\@input{concl.aux}
\@input{appendix1.aux}
\bibdata{refs}
\bibcite{Caspthesis}{1}
\bibcite{bif:7}{2}
\bibcite{bif:2}{3}
\bibcite{bif:10}{4}
\bibcite{bif:9}{5}
\bibcite{bif:4}{6}
\bibcite{bif:11}{7}
\bibcite{bif:8}{8}
\bibcite{bif:6}{9}
\bibcite{bif:1}{10}
\@writefile{toc}{\contentsline {chapter}{References}{13}}
\bibcite{bif:3}{11}
\bibcite{bif:5}{12}
\bibstyle{plain}
