\contentsline {chapter}{\numberline {1}Introduction}{1}
\contentsline {section}{\numberline {1.1}Outline of the Work}{7}
\contentsline {chapter}{\numberline {2}Continuation Techniques}{8}
\contentsline {section}{\numberline {2.1}Banach Manifold}{9}
\contentsline {chapter}{\numberline {3}Conclusions and Future Work}{11}
\contentsline {chapter}{\numberline {A}Appendices}{12}
\contentsline {chapter}{References}{13}
