<?xml version="1.0" encoding="UTF-8" standalone="no"?>
<!-- Created with Inkscape (http://www.inkscape.org/) -->

<svg
   xmlns:osb="http://www.openswatchbook.org/uri/2009/osb"
   xmlns:dc="http://purl.org/dc/elements/1.1/"
   xmlns:cc="http://creativecommons.org/ns#"
   xmlns:rdf="http://www.w3.org/1999/02/22-rdf-syntax-ns#"
   xmlns:svg="http://www.w3.org/2000/svg"
   xmlns="http://www.w3.org/2000/svg"
   xmlns:xlink="http://www.w3.org/1999/xlink"
   xmlns:sodipodi="http://sodipodi.sourceforge.net/DTD/sodipodi-0.dtd"
   xmlns:inkscape="http://www.inkscape.org/namespaces/inkscape"
   width="210mm"
   height="297mm"
   viewBox="0 0 210 297"
   version="1.1"
   id="svg8"
   inkscape:version="0.92.2 5c3e80d, 2017-08-06"
   sodipodi:docname="surface.svg">
  <defs
     id="defs2">
    <inkscape:path-effect
       is_visible="true"
       id="path-effect8590"
       effect="spiro" />
    <inkscape:path-effect
       effect="spiro"
       id="path-effect8582"
       is_visible="true" />
    <inkscape:path-effect
       effect="spiro"
       id="path-effect8578"
       is_visible="true" />
    <inkscape:path-effect
       effect="spiro"
       id="path-effect8574"
       is_visible="true" />
    <marker
       inkscape:isstock="true"
       style="overflow:visible;"
       id="marker7856"
       refX="0.0"
       refY="0.0"
       orient="auto"
       inkscape:stockid="Arrow1Lend">
      <path
         transform="scale(0.8) rotate(180) translate(12.5,0)"
         style="fill-rule:evenodd;stroke:#000000;stroke-width:1pt;stroke-opacity:1;fill:#000000;fill-opacity:1"
         d="M 0.0,0.0 L 5.0,-5.0 L -12.5,0.0 L 5.0,5.0 L 0.0,0.0 z "
         id="path7854" />
    </marker>
    <marker
       inkscape:stockid="EmptyTriangleOutL"
       orient="auto"
       refY="0.0"
       refX="0.0"
       id="EmptyTriangleOutL"
       style="overflow:visible"
       inkscape:isstock="true">
      <path
         id="path4728"
         d="M 5.77,0.0 L -2.88,5.0 L -2.88,-5.0 L 5.77,0.0 z "
         style="fill-rule:evenodd;fill:#ffffff;stroke:#000000;stroke-width:1pt;stroke-opacity:1"
         transform="scale(0.8) translate(-6,0)" />
    </marker>
    <marker
       inkscape:stockid="Arrow2Mend"
       orient="auto"
       refY="0.0"
       refX="0.0"
       id="Arrow2Mend"
       style="overflow:visible;"
       inkscape:isstock="true">
      <path
         id="path4595"
         style="fill-rule:evenodd;stroke-width:0.625;stroke-linejoin:round;stroke:#000000;stroke-opacity:1;fill:#000000;fill-opacity:1"
         d="M 8.7185878,4.0337352 L -2.2072895,0.016013256 L 8.7185884,-4.0017078 C 6.9730900,-1.6296469 6.9831476,1.6157441 8.7185878,4.0337352 z "
         transform="scale(0.6) rotate(180) translate(0,0)" />
    </marker>
    <marker
       inkscape:stockid="Arrow2Lstart"
       orient="auto"
       refY="0.0"
       refX="0.0"
       id="marker6870"
       style="overflow:visible"
       inkscape:isstock="true">
      <path
         id="path6868"
         style="fill-rule:evenodd;stroke-width:0.625;stroke-linejoin:round;stroke:#000000;stroke-opacity:1;fill:#000000;fill-opacity:1"
         d="M 8.7185878,4.0337352 L -2.2072895,0.016013256 L 8.7185884,-4.0017078 C 6.9730900,-1.6296469 6.9831476,1.6157441 8.7185878,4.0337352 z "
         transform="scale(1.1) translate(1,0)" />
    </marker>
    <marker
       inkscape:stockid="TriangleOutL"
       orient="auto"
       refY="0.0"
       refX="0.0"
       id="TriangleOutL"
       style="overflow:visible"
       inkscape:isstock="true">
      <path
         id="path4710"
         d="M 5.77,0.0 L -2.88,5.0 L -2.88,-5.0 L 5.77,0.0 z "
         style="fill-rule:evenodd;stroke:#000000;stroke-width:1pt;stroke-opacity:1;fill:#000000;fill-opacity:1"
         transform="scale(0.8)" />
    </marker>
    <marker
       inkscape:stockid="Arrow1Mend"
       orient="auto"
       refY="0.0"
       refX="0.0"
       id="Arrow1Mend"
       style="overflow:visible;"
       inkscape:isstock="true">
      <path
         id="path4577"
         d="M 0.0,0.0 L 5.0,-5.0 L -12.5,0.0 L 5.0,5.0 L 0.0,0.0 z "
         style="fill-rule:evenodd;stroke:#000000;stroke-width:1pt;stroke-opacity:1;fill:#000000;fill-opacity:1"
         transform="scale(0.4) rotate(180) translate(10,0)" />
    </marker>
    <marker
       inkscape:stockid="Arrow2Lstart"
       orient="auto"
       refY="0.0"
       refX="0.0"
       id="Arrow2Lstart"
       style="overflow:visible"
       inkscape:isstock="true">
      <path
         id="path4586"
         style="fill-rule:evenodd;stroke-width:0.625;stroke-linejoin:round;stroke:#000000;stroke-opacity:1;fill:#000000;fill-opacity:1"
         d="M 8.7185878,4.0337352 L -2.2072895,0.016013256 L 8.7185884,-4.0017078 C 6.9730900,-1.6296469 6.9831476,1.6157441 8.7185878,4.0337352 z "
         transform="scale(1.1) translate(1,0)" />
    </marker>
    <linearGradient
       id="linearGradient6530"
       osb:paint="solid">
      <stop
         style="stop-color:#000000;stop-opacity:1;"
         offset="0"
         id="stop6528" />
    </linearGradient>
    <inkscape:path-effect
       effect="spiro"
       id="path-effect6470"
       is_visible="true" />
    <inkscape:path-effect
       effect="spiro"
       id="path-effect6466"
       is_visible="true" />
    <inkscape:path-effect
       effect="spiro"
       id="path-effect4889"
       is_visible="true" />
    <inkscape:path-effect
       effect="spiro"
       id="path-effect4885"
       is_visible="true" />
    <marker
       inkscape:stockid="Arrow1Lend"
       orient="auto"
       refY="0.0"
       refX="0.0"
       id="Arrow1Lend"
       style="overflow:visible;"
       inkscape:isstock="true"
       inkscape:collect="always">
      <path
         id="path4571"
         d="M 0.0,0.0 L 5.0,-5.0 L -12.5,0.0 L 5.0,5.0 L 0.0,0.0 z "
         style="fill-rule:evenodd;stroke:#000000;stroke-width:1pt;stroke-opacity:1;fill:#000000;fill-opacity:1"
         transform="scale(0.8) rotate(180) translate(12.5,0)" />
    </marker>
    <marker
       inkscape:stockid="Arrow1Lstart"
       orient="auto"
       refY="0.0"
       refX="0.0"
       id="Arrow1Lstart"
       style="overflow:visible"
       inkscape:isstock="true">
      <path
         id="path4568"
         d="M 0.0,0.0 L 5.0,-5.0 L -12.5,0.0 L 5.0,5.0 L 0.0,0.0 z "
         style="fill-rule:evenodd;stroke:#000000;stroke-width:1pt;stroke-opacity:1;fill:#000000;fill-opacity:1"
         transform="scale(0.8) translate(12.5,0)" />
    </marker>
    <linearGradient
       inkscape:collect="always"
       xlink:href="#linearGradient6530"
       id="linearGradient6532"
       x1="9.3330276"
       y1="139.67137"
       x2="194.82167"
       y2="139.67137"
       gradientUnits="userSpaceOnUse" />
  </defs>
  <sodipodi:namedview
     id="base"
     pagecolor="#ffffff"
     bordercolor="#666666"
     borderopacity="1.0"
     inkscape:pageopacity="0.0"
     inkscape:pageshadow="2"
     inkscape:zoom="0.35"
     inkscape:cx="57.142861"
     inkscape:cy="445.71429"
     inkscape:document-units="mm"
     inkscape:current-layer="layer1"
     showgrid="false"
     inkscape:snap-others="true"
     inkscape:object-nodes="true"
     inkscape:snap-nodes="true"
     inkscape:snap-global="true"
     inkscape:snap-bbox="true"
     inkscape:object-paths="true"
     inkscape:snap-page="true"
     inkscape:window-width="1280"
     inkscape:window-height="724"
     inkscape:window-x="0"
     inkscape:window-y="1"
     inkscape:window-maximized="1"
     showguides="false" />
  <metadata
     id="metadata5">
    <rdf:RDF>
      <cc:Work
         rdf:about="">
        <dc:format>image/svg+xml</dc:format>
        <dc:type
           rdf:resource="http://purl.org/dc/dcmitype/StillImage" />
        <dc:title></dc:title>
      </cc:Work>
    </rdf:RDF>
  </metadata>
  <g
     inkscape:label="Layer 1"
     inkscape:groupmode="layer"
     id="layer1">
    <path
       style="fill:none;stroke:#000000;stroke-width:0.765;stroke-linecap:butt;stroke-linejoin:miter;stroke-miterlimit:3.4000001;stroke-dasharray:none;stroke-opacity:1;marker-start:url(#marker6870);opacity:0.394"
       d="m 18.84319,203.48461 c 91.34749,-63.95852 91.34749,-63.95852 91.34749,-63.95852"
       id="path7418"
       inkscape:connector-curvature="0" />
    <g
       id="g6490"
       style="stroke:url(#linearGradient6532);stroke-opacity:1;fill-opacity:1;stroke-width:1;stroke-miterlimit:4;stroke-dasharray:none;opacity:0.86;fill-rule:evenodd;fill:none">
      <path
         inkscape:original-d="m 111.125,194.1749 c -1.8e-4,2.29163 1.8e-4,-4.58295 0,-6.87399 -1.8e-4,-2.29103 46.44871,-47.5454 69.67281,-71.31763 23.2241,-23.772242 9.01258,-14.32111 13.51861,-21.481211 4.50602,-7.160114 1.8e-4,-0.573139 0,-0.859257"
         inkscape:path-effect="#path-effect4885"
         inkscape:connector-curvature="0"
         id="path4883"
         d="m 111.125,194.1749 c -0.19204,-2.28596 -0.19204,-4.58803 0,-6.87399 0.72031,-8.57416 4.15442,-16.78669 9.05181,-23.86134 4.89739,-7.07464 11.22047,-13.0693 18.03006,-18.32901 13.61916,-10.51944 29.26092,-18.24377 42.59094,-29.12728 3.38399,-2.76291 6.63579,-5.75258 9.14886,-9.32603 2.51306,-3.57346 4.2629,-7.787842 4.36975,-12.155181 0.007,-0.286362 0.007,-0.572895 0,-0.859257"
         style="stroke:url(#linearGradient6532);stroke-width:1;stroke-linecap:butt;stroke-linejoin:miter;stroke-opacity:1;fill-opacity:1;stroke-miterlimit:4;stroke-dasharray:none;fill-rule:evenodd;fill:none" />
      <path
         inkscape:original-d="m 9.8276733,171.52491 c 3.3006637,-2.58157 7.1088137,-5.09486 10.6628237,-7.64194 3.554007,-2.54709 53.314385,10.17002 79.971183,15.25538 26.65679,5.08535 7.10882,10.02388 10.66282,15.03618"
         inkscape:path-effect="#path-effect4889"
         inkscape:connector-curvature="0"
         id="path4887"
         d="m 9.8276733,171.52491 c 3.2527987,-2.93629 6.8370677,-5.5051 10.6628237,-7.64194 12.781622,-7.13906 28.192366,-9.23353 42.537089,-6.30695 14.344724,2.92658 27.556202,10.75663 37.434094,21.56233 4.15628,4.54667 7.74687,9.60994 10.66282,15.03618"
         style="stroke:url(#linearGradient6532);stroke-width:1;stroke-linecap:butt;stroke-linejoin:miter;stroke-opacity:1;fill-opacity:1;stroke-miterlimit:4;stroke-dasharray:none;fill-rule:evenodd;fill:none" />
      <path
         inkscape:original-d="M 9.8276733,171.52491 C 13.33748,163.50046 16.84692,154.9899 20.355997,146.72279 c 3.509076,-8.26712 28.548457,-16.05038 42.822139,-24.07518 14.273681,-8.02481 34.118816,-7.78213 51.177674,-11.67281 17.05886,-3.89069 10.44479,-15.077658 15.66664,-22.616096"
         inkscape:path-effect="#path-effect6466"
         inkscape:connector-curvature="0"
         id="path6464"
         d="m 9.8276733,171.52491 c 1.3251827,-8.98223 4.9873787,-17.60945 10.5283237,-24.80212 10.223304,-13.27081 26.338048,-21.09104 42.822139,-24.07518 8.694103,-1.57391 17.563204,-1.92622 26.307817,-3.18968 8.744614,-1.26346 17.555327,-3.52709 24.869857,-8.48313 7.76769,-5.26308 13.46953,-13.494154 15.66664,-22.616096"
         style="stroke:url(#linearGradient6532);stroke-width:1;stroke-linecap:butt;stroke-linejoin:miter;stroke-opacity:1;fill-opacity:1;stroke-miterlimit:4;stroke-dasharray:none;fill-rule:evenodd;fill:none" />
      <path
         inkscape:original-d="m 130.02245,85.088897 c 2.74148,4.276656 4.98429,8.553615 7.47605,12.830873 2.49174,4.27725 37.87887,-2.851607 56.81792,-4.276958"
         inkscape:path-effect="#path-effect6470"
         inkscape:connector-curvature="0"
         id="path6468"
         d="m 130.02245,85.088897 c 1.56914,4.732302 4.13283,9.132261 7.47605,12.830873 7.34216,8.12264 18.53815,12.59894 29.45645,11.77707 10.9183,-0.82187 21.31801,-6.92379 27.36147,-16.054028"
         style="stroke:url(#linearGradient6532);stroke-width:1;stroke-linecap:butt;stroke-linejoin:miter;stroke-opacity:1;fill-opacity:1;stroke-miterlimit:4;stroke-dasharray:none;fill-rule:evenodd;fill:none" />
    </g>
    <path
       style="opacity:0.86000001;fill:none;fill-opacity:1;fill-rule:evenodd;stroke:#000000;stroke-width:10.79865074;stroke-linejoin:round;stroke-miterlimit:4;stroke-dasharray:none;stroke-dashoffset:0;stroke-opacity:1"
       d=""
       id="path6570"
       inkscape:connector-curvature="0"
       transform="scale(0.26458333)" />
    <path
       style="opacity:0.86000001;fill:none;fill-opacity:1;fill-rule:evenodd;stroke:#000000;stroke-width:10.79865074;stroke-linejoin:round;stroke-miterlimit:4;stroke-dasharray:none;stroke-dashoffset:0;stroke-opacity:1"
       d=""
       id="path6574"
       inkscape:connector-curvature="0"
       transform="scale(0.26458333)" />
    <path
       style="opacity:1;fill:#000000;fill-opacity:0.37878788;fill-rule:evenodd;stroke:#000000;stroke-width:3.92199993;stroke-linejoin:round;stroke-miterlimit:4;stroke-dasharray:none;stroke-dashoffset:0;stroke-opacity:0.05050505"
       d="m 105.93001,183.66724 c -7.596335,-10.61932 -20.137767,-20.45132 -31.847125,-24.96693 -8.782494,-3.38689 -14.791534,-4.47604 -24.7446,-4.485 -13.513073,-0.0122 -24.241461,3.07508 -34.121067,9.81884 -2.437878,1.66408 -4.430608,2.76784 -4.428289,2.4528 0.01315,-1.78654 1.993538,-7.28568 4.253179,-11.81022 7.121522,-14.2596 20.091185,-24.62425 37.805565,-30.21214 6.073436,-1.91583 12.852231,-3.04471 32.695581,-5.44486 5.568542,-0.67354 12.372115,-1.91791 15.119046,-2.76527 13.63589,-4.20631 23.0141,-12.28163 27.72542,-23.873576 l 1.63473,-4.02218 2.44924,3.816813 c 12.17605,18.974723 39.6298,22.377813 56.16653,6.962232 3.25328,-3.032712 3.70508,-3.262238 3.2229,-1.637289 -2.60499,8.77889 -10.76549,16.19841 -34.49239,31.36044 -14.94672,9.5513 -23.96865,16.32925 -30.35768,22.80696 -10.56947,10.71618 -16.03664,21.04621 -17.13574,32.37735 l -0.43881,4.52392 z"
       id="path6588"
       inkscape:connector-curvature="0" />
    <path
       style="fill:none;stroke:#000000;stroke-width:0.665;stroke-linecap:butt;stroke-linejoin:miter;stroke-opacity:1;stroke-miterlimit:4;stroke-dasharray:none;marker-end:url(#Arrow1Lend);opacity:0.5"
       d="m 110.19068,139.52609 c 70.48194,16.11081 70.48194,16.11081 70.48194,16.11081"
       id="path7754"
       inkscape:connector-curvature="0" />
    <path
       style="fill:none;stroke:#000000;stroke-width:0.665;stroke-linecap:butt;stroke-linejoin:miter;stroke-opacity:1;marker-end:url(#marker7856);stroke-miterlimit:4;stroke-dasharray:none;opacity:0.487"
       d="M 110.19068,139.52609 C 109.61309,45.267856 109.61309,45.267856 109.61309,45.267856"
       id="path7846"
       inkscape:connector-curvature="0" />
    <flowRoot
       xml:space="preserve"
       id="flowRoot7972"
       style="font-style:normal;font-variant:normal;font-weight:normal;font-stretch:normal;font-size:40px;line-height:1.25;font-family:sans-serif;-inkscape-font-specification:'sans-serif, Normal';font-variant-ligatures:normal;font-variant-caps:normal;font-variant-numeric:normal;font-feature-settings:normal;text-align:start;letter-spacing:0px;word-spacing:0px;writing-mode:lr-tb;text-anchor:start;fill:#000000;fill-opacity:1;stroke:none"
       transform="matrix(0.26458333,0,0,0.26458333,-9.8273813,3.0238096)"><flowRegion
         id="flowRegion7974"><rect
           id="rect7976"
           width="231.63879"
           height="102.01542"
           x="71.218353"
           y="769.07568" /></flowRegion><flowPara
         id="flowPara7978">\lambda</flowPara></flowRoot>    <flowRoot
       xml:space="preserve"
       id="flowRoot7980"
       style="fill:black;fill-opacity:1;stroke:none;font-family:sans-serif;font-style:normal;font-weight:normal;font-size:40px;line-height:1.25;letter-spacing:0px;word-spacing:0px;-inkscape-font-specification:'sans-serif, Normal';font-stretch:normal;font-variant:normal;text-anchor:start;text-align:start;writing-mode:lr;font-variant-ligatures:normal;font-variant-caps:normal;font-variant-numeric:normal;font-feature-settings:normal"><flowRegion
         id="flowRegion7982"><rect
           id="rect7984"
           width="198.19763"
           height="91.396027"
           x="595.50317"
           y="568.26654" /></flowRegion><flowPara
         id="flowPara7986" /></flowRoot>    <text
       xml:space="preserve"
       style="font-style:normal;font-variant:normal;font-weight:normal;font-stretch:normal;font-size:10.58333302px;line-height:1.25;font-family:sans-serif;-inkscape-font-specification:'sans-serif, Normal';font-variant-ligatures:normal;font-variant-caps:normal;font-variant-numeric:normal;font-feature-settings:normal;text-align:start;letter-spacing:0px;word-spacing:0px;writing-mode:lr-tb;text-anchor:start;fill:#000000;fill-opacity:1;stroke:none;stroke-width:0.26458332"
       x="169.98854"
       y="167.03943"
       id="text7990"><tspan
         sodipodi:role="line"
         id="tspan7988"
         x="169.98854"
         y="167.03943"
         style="stroke-width:0.26458332">\mu</tspan></text>
    <flowRoot
       xml:space="preserve"
       id="flowRoot7992"
       style="font-style:normal;font-variant:normal;font-weight:normal;font-stretch:normal;font-size:40px;line-height:1.25;font-family:sans-serif;-inkscape-font-specification:'sans-serif, Normal';font-variant-ligatures:normal;font-variant-caps:normal;font-variant-numeric:normal;font-feature-settings:normal;text-align:start;letter-spacing:0px;word-spacing:0px;writing-mode:lr-tb;text-anchor:start;fill:#000000;fill-opacity:1;stroke:none"
       transform="matrix(0.26458333,0,0,0.24487622,-3.7797619,2.3449142)"><flowRegion
         id="flowRegion7994"><rect
           id="rect7996"
           width="162.85715"
           height="105.71429"
           x="431.42856"
           y="113.94826" /></flowRegion><flowPara
         id="flowPara7998">J(u)</flowPara></flowRoot>    <path
       style="fill:none;stroke:#ff0000;stroke-width:0.56267858;stroke-linecap:butt;stroke-linejoin:miter;stroke-miterlimit:4;stroke-dasharray:none;stroke-opacity:1"
       d="m 75.59077,120.84377 c 7.677987,-0.23819 15.377344,0.21681 22.973834,1.35767 7.242786,1.08774 14.493786,2.83753 20.896786,6.39318 6.40301,3.55566 11.9305,9.0886 14.32974,16.00848 0.30825,0.88905 0.5641,1.79625 0.7658,2.71535"
       id="path8580"
       inkscape:connector-curvature="0"
       inkscape:path-effect="#path-effect8582"
       inkscape:original-d="m 75.59077,120.84377 c -19.655654,-8.82466 15.316155,0.90488 22.973834,1.35767 7.657666,0.45279 23.484626,14.9342 35.226526,22.40166 11.74191,7.46745 0.5108,1.80999 0.7658,2.71535" />
    <path
       style="fill:none;stroke:#000000;stroke-width:0.688;stroke-linecap:butt;stroke-linejoin:miter;stroke-opacity:1;stroke-miterlimit:4;stroke-dasharray:none"
       d="m 134.55693,67.941672 c 0.25099,26.458604 2.7e-4,52.917538 0,79.376778"
       id="path8584"
       inkscape:connector-curvature="0" />
    <path
       inkscape:connector-curvature="0"
       id="path8586"
       d="m 75.59077,41.466987 c 0.25099,26.458604 2.7e-4,52.917538 0,79.376783"
       style="fill:none;stroke:#000000;stroke-width:0.68800002;stroke-linecap:butt;stroke-linejoin:miter;stroke-miterlimit:4;stroke-dasharray:none;stroke-opacity:1" />
    <path
       inkscape:original-d="m 75.59077,41.466992 c -19.655654,-8.82466 15.316155,0.90488 22.973834,1.35767 7.657666,0.45279 23.484626,14.9342 35.226526,22.40166 11.74191,7.46745 0.5108,1.80999 0.7658,2.71535"
       inkscape:path-effect="#path-effect8590"
       inkscape:connector-curvature="0"
       id="path8588"
       d="m 75.59077,41.466992 c 7.677987,-0.238191 15.377344,0.216813 22.973834,1.35767 7.242786,1.087736 14.493786,2.837531 20.896786,6.393184 6.40301,3.555654 11.9305,9.088596 14.32974,16.008476 0.30825,0.889046 0.5641,1.796254 0.7658,2.71535"
       style="fill:none;stroke:#000000;stroke-width:0.56267858;stroke-linecap:butt;stroke-linejoin:miter;stroke-miterlimit:4;stroke-dasharray:none;stroke-opacity:1" />
    <path
       style="opacity:1;fill:#237de2;fill-opacity:0.21212122;fill-rule:evenodd;stroke:none;stroke-width:7.42947102;stroke-linejoin:round;stroke-miterlimit:4;stroke-dasharray:none;stroke-dashoffset:0;stroke-opacity:1"
       d="M 289.14286,302.91148 V 160.23397 L 317,160.24486 c 24.34046,0.01 55.75653,3.7164 85.35121,10.0709 l 8.92264,1.91585 -5.56494,18.54936 c -5.83159,19.43817 -5.33096,24.11306 1.93633,18.08174 C 411.53348,205.63575 412,216.57115 412,310.93924 V 416.6299 l -17.68291,7.66886 c -15.16368,6.57631 -47.7234,13.40823 -94.45995,19.82027 l -10.71428,1.46997 z"
       id="path8592"
       inkscape:connector-curvature="0"
       transform="scale(0.26458333)" />
    <path
       style="opacity:1;fill:#0354bd;fill-opacity:0.21176471;fill-rule:evenodd;stroke:none;stroke-width:7.42947102;stroke-linejoin:round;stroke-miterlimit:4;stroke-dasharray:none;stroke-dashoffset:0;stroke-opacity:1"
       d="m 417.71429,308.45556 c 0,-92.14287 0.46684,-102.81954 4.35476,-99.59286 6.68168,5.54531 7.20027,2.50889 2.37993,-13.93485 -2.43421,-8.30388 -3.71296,-15.81085 -2.84166,-16.68215 2.4096,-2.4096 23.97507,6.94414 37.56132,16.29172 18.02665,12.40266 37.4286,35.42325 42.56843,50.5078 3.33457,9.78643 4.52439,24.0807 4.45778,53.55486 -0.094,41.60497 -0.10329,41.62764 -10.38888,25.45281 -3.15568,-4.96253 -3.62114,-4.86403 -8.57143,1.81393 -2.879,3.88379 -7.51667,12.69883 -10.30593,19.58899 -2.78927,6.89015 -8.82369,17.98132 -13.40982,24.64703 -8.78148,12.76344 -38.69877,41.5597 -43.17761,41.5597 -1.54928,0 -2.62689,-42.33788 -2.62689,-103.20698 z"
       id="path8594"
       inkscape:connector-curvature="0"
       transform="scale(0.26458333)" />
    <path
       style="opacity:1;fill:#048ae1;fill-opacity:0.21176471;fill-rule:evenodd;stroke:none;stroke-width:7.42947102;stroke-linejoin:round;stroke-miterlimit:4;stroke-dasharray:none;stroke-dashoffset:0;stroke-opacity:1"
       d="m 383.42857,461.45534 c -10.21428,-2.09648 -23.71428,-3.89148 -30,-3.9889 -8.46168,-0.13113 -10.31599,-0.89612 -7.14286,-2.94675 2.35715,-1.52331 7.5,-2.81672 11.42858,-2.87425 3.92857,-0.0575 17.75,-3.69401 30.71428,-8.08106 L 412,435.58791 v 15.18017 c 0,17.29085 1.27623,16.81347 -28.57143,10.68726 z"
       id="path8598"
       inkscape:connector-curvature="0"
       transform="scale(0.26458333)" />
    <path
       style="opacity:1;fill:#237de2;fill-opacity:0.21176471;fill-rule:evenodd;stroke:none;stroke-width:7.42947102;stroke-linejoin:round;stroke-miterlimit:4;stroke-dasharray:none;stroke-dashoffset:0;stroke-opacity:1"
       d="m 499.27519,527.25546 c -11.27759,-20.94916 -45.45863,-46.21928 -76.5609,-56.60165 -4.0785,-1.36146 -5,-5.0948 -5,-20.2568 0,-17.96895 0.30029,-18.74301 9.02058,-23.25245 22.16576,-11.46236 49.80665,-43.99711 61.20445,-72.04079 l 6.20549,-15.26828 6.1116,9.88876 c 5.94799,9.62407 6.09136,12.2712 5.35616,98.89448 l -0.75543,89.00572 z"
       id="path8600"
       inkscape:connector-curvature="0"
       transform="scale(0.26458333)" />
  </g>
</svg>
